…
#### In 2001 the Druid Peak pack had the largest pack size at 37. In 2010 the pack size was 0 and I think this may have occurred due to low reproductive success in previous years since the `reprody1` values are at 0 meaning wolves did not localize and no pups were observed.

Problem 9. (5 points) Among the YNP wolf packs, which one has had the highest overall persistence `persisty1` for the years represented in the data? Look this pack up online and tell me what is unique about its behavior- specifically, what prey animals does this pack specialize on?  

```r
ynp %>% 
  group_by(pack) %>%
  filter(persisty1 == 1) %>% 
  summarize(years_of_persistence = sum(persisty1)) %>% 
  arrange(desc(years_of_persistence))
```

```
## # A tibble: 38 × 2
##    pack        years_of_persistence
##    <chr>                      <int>
##  1 mollies                       26
##  2 cougar                        20
##  3 yelldelta                     18
##  4 druid                         13
##  5 leopold                       12
##  6 agate                         10
##  7 8mile                          9
##  8 canyon                         9
##  9 gibbon/mary                    9
## 10 nezperce                       9
## # ℹ 28 more rows
```
…
