…
```r
deserts %>% 
  group_by(species) %>% 
  summarise(n_total = n()) %>% 
  arrange(desc(n_total))
```

```
## # A tibble: 40 × 2
##    species      n_total
##    <chr>          <int>
##  1 merriami       10596
##  2 penicillatus    3123
##  3 ordii           3027
##  4 baileyi         2891
##  5 megalotis       2609
##  6 spectabilis     2504
##  7 torridus        2249
##  8 flavus          1597
##  9 eremicus        1299
## 10 albigula        1252
## # ℹ 30 more rows
```
…
```r
deserts %>% 
  group_by(genus, species) %>% 
  summarise(mean_weight = mean(weight, na.rm = T)) %>% 
  arrange(desc(mean_weight))
```

```
## `summarise()` has grouped output by 'genus'. You can override using the
## `.groups` argument.
```

```
## # A tibble: 48 × 3
## # Groups:   genus [26]
##    genus        species      mean_weight
##    <chr>        <chr>              <dbl>
##  1 Neotoma      albigula           159. 
##  2 Dipodomys    spectabilis        120. 
##  3 Spermophilus spilosoma           93.5
##  4 Sigmodon     hispidus            73.1
##  5 Sigmodon     fulviventer         58.9
##  6 Sigmodon     ochrognathus        55.4
##  7 Dipodomys    ordii               48.9
##  8 Dipodomys    merriami            43.2
##  9 Chaetodipus  baileyi             31.7
## 10 Onychomys    leucogaster         31.6
## # ℹ 38 more rows
```
…
