…
<img src="hw11_files/figure-html/unnamed-chunk-10-1.png" width="75%" />

**7. Which countries have had the largest population growth since 1952?**

```r
gapminder %>% 
  group_by(country) %>% 
  summarise(max = max(pop),
            min = min(pop)) %>%
  mutate(growth = max-min) %>% 
  arrange(desc(growth))
```

```
## # A tibble: 142 × 4
##    country              max       min    growth
##    <fct>              <int>     <int>     <int>
##  1 China         1318683096 556263527 762419569
##  2 India         1110396331 372000000 738396331
##  3 United States  301139947 157553000 143586947
##  4 Indonesia      223547000  82052000 141495000
##  5 Brazil         190010647  56602560 133408087
##  6 Pakistan       169270617  41346560 127924057
##  7 Bangladesh     150448339  46886859 103561480
##  8 Nigeria        135031164  33119096 101912068
##  9 Mexico         108700891  30144317  78556574
## 10 Philippines     91077287  22438691  68638596
## # ℹ 132 more rows
```
…
