…
2. Notice that we have some neutral superheros! Who are they? List their names below.  

```r
superhero_info %>% 
  select("name", "alignment") %>% 
  filter(alignment == "neutral")
```

```
## # A tibble: 24 × 2
##    name         alignment
##    <chr>        <chr>    
##  1 Bizarro      neutral  
##  2 Black Flash  neutral  
##  3 Captain Cold neutral  
##  4 Copycat      neutral  
##  5 Deadpool     neutral  
##  6 Deathstroke  neutral  
##  7 Etrigan      neutral  
##  8 Galactus     neutral  
##  9 Gladiator    neutral  
## 10 Indigo       neutral  
## # ℹ 14 more rows
```
#### Names: Bizarro	neutral, Black Flash, Captain Cold, Copycat, Deadpool, Deathstroke, Etrigan, Galactus, Gladiator, Indigo

## `superhero_info`
3. Let's say we are only interested in the variables name, alignment, and "race". How would you isolate these variables from `superhero_info`?

```r
superhero_info %>% 
  select("name", "alignment", "race")
```

```
## # A tibble: 734 × 3
##    name          alignment race             
##    <chr>         <chr>     <chr>            
##  1 A-Bomb        good      Human            
##  2 Abe Sapien    good      Icthyo Sapien    
##  3 Abin Sur      good      Ungaran          
##  4 Abomination   bad       Human / Radiation
##  5 Abraxas       bad       Cosmic Entity    
##  6 Absorbing Man bad       Human            
##  7 Adam Monroe   good      <NA>             
##  8 Adam Strange  good      Human            
##  9 Agent 13      good      <NA>             
## 10 Agent Bob     good      Human            
## # ℹ 724 more rows
```

## Not Human
4. List all of the superheros that are not human.

```r
superhero_info %>% 
  select("name", "race") %>% 
  filter(race != "Human") %>% 
  filter(race != "Human / Radiation")
```

```
## # A tibble: 211 × 2
##    name         race           
##    <chr>        <chr>          
##  1 Abe Sapien   Icthyo Sapien  
##  2 Abin Sur     Ungaran        
##  3 Abraxas      Cosmic Entity  
##  4 Ajax         Cyborg         
##  5 Alien        Xenomorph XX121
##  6 Amazo        Android        
##  7 Angel        Vampire        
##  8 Angel Dust   Mutant         
##  9 Anti-Monitor God / Eternal  
## 10 Anti-Venom   Symbiote       
## # ℹ 201 more rows
```
…
8. Among the bad guys, who are the male humans over 200 inches in height?

```r
bad %>% 
  filter(height >= "200")
```

```
## # A tibble: 28 × 10
##    name  gender eye_color race  hair_color height publisher skin_color alignment
##    <chr> <chr>  <chr>     <chr> <chr>       <dbl> <chr>     <chr>      <chr>    
##  1 Abom… Male   green     Huma… No Hair     203   Marvel C… <NA>       bad      
##  2 Alien Male   <NA>      Xeno… No Hair     244   Dark Hor… black      bad      
##  3 Amazo Male   red       Andr… <NA>        257   DC Comics <NA>       bad      
##  4 Anti… Male   yellow    God … No Hair      61   DC Comics <NA>       bad      
##  5 Apoc… Male   red       Muta… Black       213   Marvel C… grey       bad      
##  6 Bane  Male   <NA>      Human <NA>        203   DC Comics <NA>       bad      
##  7 Bloo… Female blue      Human Brown       218   Marvel C… <NA>       bad      
##  8 Bloo… Male   white     <NA>  No Hair      30.5 Marvel C… <NA>       bad      
##  9 Dark… Male   red       New … No Hair     267   DC Comics grey       bad      
## 10 Doct… Male   brown     Human Brown       201   Marvel C… <NA>       bad      
## # ℹ 18 more rows
## # ℹ 1 more variable: weight <dbl>
```
…
11. Let's make a new variable that is the ratio of height to weight. Call this variable `height_weight_ratio`.    

```r
superhero_info %>% 
  mutate(height_weight_ratio = height/weight)
```

```
## # A tibble: 734 × 11
##    name  gender eye_color race  hair_color height publisher skin_color alignment
##    <chr> <chr>  <chr>     <chr> <chr>       <dbl> <chr>     <chr>      <chr>    
##  1 A-Bo… Male   yellow    Human No Hair       203 Marvel C… <NA>       good     
##  2 Abe … Male   blue      Icth… No Hair       191 Dark Hor… blue       good     
##  3 Abin… Male   blue      Unga… No Hair       185 DC Comics red        good     
##  4 Abom… Male   green     Huma… No Hair       203 Marvel C… <NA>       bad      
##  5 Abra… Male   blue      Cosm… Black          NA Marvel C… <NA>       bad      
##  6 Abso… Male   blue      Human No Hair       193 Marvel C… <NA>       bad      
##  7 Adam… Male   blue      <NA>  Blond          NA NBC - He… <NA>       good     
##  8 Adam… Male   blue      Human Blond         185 DC Comics <NA>       good     
##  9 Agen… Female blue      <NA>  Blond         173 Marvel C… <NA>       good     
## 10 Agen… Male   brown     Human Brown         178 Marvel C… <NA>       good     
## # ℹ 724 more rows
## # ℹ 2 more variables: weight <dbl>, height_weight_ratio <dbl>
```

12. Who has the highest height to weight ratio?  

```r
superhero_info %>% 
  mutate(height_weight_ratio = height/weight) %>% 
  arrange(desc(height_weight_ratio))
```

```
## # A tibble: 734 × 11
##    name  gender eye_color race  hair_color height publisher skin_color alignment
##    <chr> <chr>  <chr>     <chr> <chr>       <dbl> <chr>     <chr>      <chr>    
##  1 Groot Male   yellow    Flor… <NA>          701 Marvel C… <NA>       good     
##  2 Gala… Male   black     Cosm… Black         876 Marvel C… <NA>       neutral  
##  3 Fin … Male   red       Kaka… No Hair       975 Marvel C… green      good     
##  4 Long… Male   blue      Human Blond         188 Marvel C… <NA>       good     
##  5 Jack… Male   blue      Human Brown          71 Dark Hor… <NA>       good     
##  6 Rock… Male   brown     Anim… Brown         122 Marvel C… <NA>       good     
##  7 Dash  Male   blue      Human Blond         122 Dark Hor… <NA>       good     
##  8 Howa… Male   brown     <NA>  Yellow         79 Marvel C… <NA>       good     
##  9 Swarm Male   yellow    Muta… No Hair       196 Marvel C… yellow     bad      
## 10 Yoda  Male   brown     Yoda… White          66 George L… green      good     
## # ℹ 724 more rows
## # ℹ 2 more variables: weight <dbl>, height_weight_ratio <dbl>
```
…
13. How many superheros have a combination of agility, stealth, super_strength, stamina?

```r
superhero_powers %>%
  filter(agility & stealth & super_strength & stamina)
```

```
## # A tibble: 40 × 168
##    hero_names  agility accelerated_healing lantern_power_ring
##    <chr>       <lgl>   <lgl>               <lgl>             
##  1 Alex Mercer TRUE    TRUE                FALSE             
##  2 Angel       TRUE    TRUE                FALSE             
##  3 Ant-Man II  TRUE    FALSE               FALSE             
##  4 Aquaman     TRUE    TRUE                FALSE             
##  5 Batman      TRUE    FALSE               FALSE             
##  6 Black Flash TRUE    FALSE               FALSE             
##  7 Black Manta TRUE    FALSE               FALSE             
##  8 Brundlefly  TRUE    FALSE               FALSE             
##  9 Buffy       TRUE    TRUE                FALSE             
## 10 Cable       TRUE    TRUE                FALSE             
## # ℹ 30 more rows
## # ℹ 164 more variables: dimensional_awareness <lgl>, cold_resistance <lgl>,
## #   durability <lgl>, stealth <lgl>, energy_absorption <lgl>, flight <lgl>,
## #   danger_sense <lgl>, underwater_breathing <lgl>, marksmanship <lgl>,
## #   weapons_master <lgl>, power_augmentation <lgl>, animal_attributes <lgl>,
## #   longevity <lgl>, intelligence <lgl>, super_strength <lgl>,
## #   cryokinesis <lgl>, telepathy <lgl>, energy_armor <lgl>, …
```
…
