…
fisheries_tidy$catch <- as.numeric(fisheries_tidy$catch)
```

3. How many countries are represented in the data? Provide a count and list their names.

```r
fisheries_tidy %>% 
  group_by(country) %>% 
  summarize(n = n())
```

```
## # A tibble: 203 × 2
##    country                 n
##    <fct>               <int>
##  1 Albania               934
##  2 Algeria              1561
##  3 American Samoa        556
##  4 Angola               2119
##  5 Anguilla              129
##  6 Antigua and Barbuda   356
##  7 Argentina            3403
##  8 Aruba                 172
##  9 Australia            8183
## 10 Bahamas               423
## # ℹ 193 more rows
```
…
#### 1551 distinct species

6. Which country had the largest overall catch in the year 2000?

```r
fisheries_tidy_new %>% 
  group_by(country) %>% 
  filter(year == 2000) %>% 
  summarize(max_catch = max(catch, na.rm=TRUE)) %>% 
  arrange(desc(max_catch))
```

```
## # A tibble: 193 × 2
##    country                  max_catch
##    <fct>                        <dbl>
##  1 China                         9068
##  2 Peru                          5717
##  3 Russian Federation            5065
##  4 Viet Nam                      4945
##  5 Chile                         4299
##  6 United States of America      2438
##  7 Philippines                    999
##  8 Japan                          988
##  9 Bangladesh                     977
## 10 Senegal                        970
## # ℹ 183 more rows
```

#### China had the highest catch in 2000 at 9068

7. Which country caught the most sardines (_Sardina pilchardus_) between the years 1990-2000?

```r
fisheries_tidy_new %>% 
  group_by(country) %>% 
  filter(between(year, 1990, 2000)) %>% 
  filter(asfis_species_name == "Sardina pilchardus") %>% 
  summarize(max_sardines = max(catch, na.rm=TRUE))
```

```
## # A tibble: 37 × 2
##    country  max_sardines
##    <fct>           <dbl>
##  1 Albania            50
##  2 Algeria            95
##  3 Belize              9
##  4 Bulgaria           48
##  5 China               8
##  6 Croatia            94
##  7 Cyprus             12
##  8 Denmark            96
##  9 Estonia            20
## 10 France             97
## # ℹ 27 more rows
```
…
#### The top 5 countries are India, China, Spain, Algeria, and France  

9. Which species had the highest catch total between 2008-2012? (hint: Osteichthyes is not a species)

```r
fisheries_tidy_new %>% 
  filter(between(year, 2008, 2012)) %>%
  group_by(asfis_species_name) %>% 
  filter(catch != "NA") %>%
  summarize(total_catch = sum(catch)) %>% 
  arrange(desc(total_catch))
```

```
## # A tibble: 1,353 × 2
##    asfis_species_name    total_catch
##    <chr>                       <dbl>
##  1 Osteichthyes               107808
##  2 Theragra chalcogramma       41075
##  3 Engraulis ringens           35523
##  4 Katsuwonus pelamis          32153
##  5 Trichiurus lepturus         30400
##  6 Clupea harengus             28527
##  7 Thunnus albacares           20119
##  8 Scomber japonicus           14723
##  9 Gadus morhua                13253
## 10 Thunnus alalunga            12019
## # ℹ 1,343 more rows
```

#### Theragra chalcogramma (Alaska Pollock) has the highest catch total

10. Use the data to do at least one analysis of your choice. Which year in which country had the highest catch?

```r
fisheries_tidy_new %>% 
  filter(catch != "NA") %>%
  count(country, year, catch) %>% 
  arrange(desc(catch))
```

```
## # A tibble: 118,182 × 4
##    country                   year catch     n
##    <fct>                    <dbl> <dbl> <int>
##  1 Peru                      1970 77000     1
##  2 Peru                      1971 76800     1
##  3 Peru                      1968 62700     1
##  4 Peru                      1992  9966     1
##  5 Japan                     1982  9954     1
##  6 Chile                     2006  9941     1
##  7 Chile                     2001  9933     1
##  8 United States of America  2004  9928     1
##  9 Chile                     1989  9904     1
## 10 China                     1975  9899     1
## # ℹ 118,172 more rows
```
…
